{
  "port": "PORT",
  "node_env": "NODE_ENV",
  "db": {
    "connectionString": "MONGO_CONNECTION_STRING"
  },
  "internal_services": {
    "user": {
      "url": "USER_SERVICE_URL"
    },
    "menu": {
      "url": "MENU_SERVICE_URL"
    }
  }
}
